docs/Versuch/TestSound/F0009CH1.CSV

Record Length,2.500000e+03,,  -8.490000000000,  -0.00800,
Sample Interval,1.000000e-02,,  -8.480000000000,  -0.00800,
Trigger Point,8.490000000000e+02,,  -8.470000000000,  -0.02400,
,,,  -8.460000000000,   0.00800,
,,,  -8.450000000000,   0.00000,
,,,  -8.440000000000,   0.00000,
Source,CH1,,  -8.430000000000,   0.00000,
Vertical Units,V,,  -8.420000000000,   0.02400,
Vertical Scale,2.000000e-01,,  -8.410000000000,  -0.00800,
Vertical Offset,-8.000000e-03,,  -8.400000000000,   0.02400,
Horizontal Units,s,,  -8.390000000000,   0.00800,
Horizontal Scale,2.500000e+00,,  -8.380000000000,  -0.00800,
Pt Fmt,Y,,  -8.370000000000,   0.00800,
Yzero,0.000000e+00,,  -8.360000000000,  -0.00800,
Probe Atten,1.000000e+01,,  -8.350000000000,   0.00800,
Model Number,TDS2024C,,  -8.340000000000,   0.00000,
Serial Number,C040020,,  -8.330000000000,   0.00000,
Firmware Version,FV:v24.26,,  -8.320000000000,   0.00000,
,,,-08.310000000000,   0.00000,
,,,-08.300000000000,   0.01600,
,,,-08.290000000000,  -0.00800,
,,,-08.280000000000,   0.00000,
,,,-08.270000000000,   0.00800,
,,,-08.260000000000,   0.00000,
,,,-08.250000000000,   0.00800,
,,,-08.240000000000,   0.00000,
,,,-08.230000000000,   0.00000,
,,,-08.220000000000,   0.00000,
,,,-08.210000000000,  -0.01600,
,,,-08.200000000000,   0.00000,
,,,-08.190000000000,   0.00800,
,,,-08.180000000000,   0.02400,
,,,-08.170000000000,   0.00000,
,,,-08.160000000000,   0.00000,
,,,-08.150000000000,   0.00800,
,,,-08.140000000000,  -0.00800,
,,,-08.130000000000,   0.00800,
,,,-08.120000000000,  -0.00800,
,,,-08.110000000000,   0.00000,
,,,-08.100000000000,   0.01600,
,,,-08.090000000000,   0.00800,
,,,-08.080000000000,   0.02400,
,,,-08.070000000000,  -0.00800,
,,,-08.060000000000,  -0.00800,
,,,-08.050000000000,   0.00800,
,,,-08.040000000000,  -0.01600,
,,,-08.030000000000,   0.02400,
,,,-08.020000000000,   0.00800,
,,,-08.010000000000,  -0.00800,
,,,-08.000000000000,   0.47200,
,,,-07.990000000000,   0.39200,
,,,-07.980000000000,   0.35200,
,,,-07.970000000000,   0.31200,
,,,-07.960000000000,   0.26400,
,,,-07.950000000000,   0.24000,
,,,-07.940000000000,   0.21600,
,,,-07.930000000000,   0.17600,
,,,-07.920000000000,   0.16000,
,,,-07.910000000000,   0.15200,
,,,-07.900000000000,   0.13600,
,,,-07.890000000000,   0.12000,
,,,-07.880000000000,   0.10400,
,,,-07.870000000000,   0.08800,
,,,-07.860000000000,   0.08000,
,,,-07.850000000000,   0.08000,
,,,-07.840000000000,   0.06400,
,,,-07.830000000000,   0.07200,
,,,-07.820000000000,   0.05600,
,,,-07.810000000000,   0.04000,
,,,-07.800000000000,   0.05600,
,,,-07.790000000000,   0.04800,
,,,-07.780000000000,   0.04000,
,,,-07.770000000000,   0.03200,
,,,-07.760000000000,   0.03200,
,,,-07.750000000000,   0.04000,
,,,-07.740000000000,   0.02400,
,,,-07.730000000000,   0.02400,
,,,-07.720000000000,   0.00800,
,,,-07.710000000000,   0.00800,
,,,-07.700000000000,   0.02400,
,,,-07.690000000000,   0.01600,
,,,-07.680000000000,   0.00800,
,,,-07.670000000000,   0.00000,
,,,-07.660000000000,   0.03200,
,,,-07.650000000000,   0.00800,
,,,-07.640000000000,   0.00800,
,,,-07.630000000000,   0.01600,
,,,-07.620000000000,  -0.00800,
,,,-07.610000000000,   0.00000,
,,,-07.600000000000,   0.00800,
,,,-07.590000000000,   0.01600,
,,,-07.580000000000,   0.00000,
,,,-07.570000000000,   0.01600,
,,,-07.560000000000,   0.00000,
,,,-07.550000000000,   0.01600,
,,,-07.540000000000,   0.02400,
,,,-07.530000000000,  -0.00800,
,,,-07.520000000000,   0.00000,
,,,-07.510000000000,   0.00000,
,,,-07.500000000000,   0.00800,
,,,-07.490000000000,   0.00000,
,,,-07.480000000000,   0.00800,
,,,-07.470000000000,  -0.00800,
,,,-07.460000000000,  -0.01600,
,,,-07.450000000000,   0.00000,
,,,-07.440000000000,   0.00000,
,,,-07.430000000000,   0.00000,
,,,-07.420000000000,   0.00800,
,,,-07.410000000000,   0.00800,
,,,-07.400000000000,  -0.00800,
,,,-07.390000000000,  -0.00800,
,,,-07.380000000000,   0.00800,
,,,-07.370000000000,   0.00000,
,,,-07.360000000000,   0.00800,
,,,-07.350000000000,   0.01600,
,,,-07.340000000000,   0.00000,
,,,-07.330000000000,  -0.00800,
,,,-07.320000000000,  -0.01600,
,,,-07.310000000000,   0.01600,
,,,-07.300000000000,   0.01600,
,,,-07.290000000000,   0.00800,
,,,-07.280000000000,   0.01600,
,,,-07.270000000000,   0.00800,
,,,-07.260000000000,   0.01600,
,,,-07.250000000000,   0.00800,
,,,-07.240000000000,   0.03200,
,,,-07.230000000000,  -0.00800,
,,,-07.220000000000,   0.00000,
,,,-07.210000000000,   0.00000,
,,,-07.200000000000,   0.00800,
,,,-07.190000000000,   0.01600,
,,,-07.180000000000,   0.00000,
,,,-07.170000000000,   0.00000,
,,,-07.160000000000,  -0.00800,
,,,-07.150000000000,   0.01600,
,,,-07.140000000000,   0.01600,
,,,-07.130000000000,   0.00800,
,,,-07.120000000000,   0.00800,
,,,-07.110000000000,   0.00000,
,,,-07.100000000000,  -0.00800,
,,,-07.090000000000,   0.00800,
,,,-07.080000000000,  -0.00800,
,,,-07.070000000000,   0.02400,
,,,-07.060000000000,  -0.00800,
,,,-07.050000000000,   0.01600,
,,,-07.040000000000,  -0.00800,
,,,-07.030000000000,  -0.00800,
,,,-07.020000000000,   0.01600,
,,,-07.010000000000,  -0.01600,
,,,-07.000000000000,  -0.44000,
,,,-06.990000000000,  -0.39200,
,,,-06.980000000000,  -0.35200,
,,,-06.970000000000,  -0.30400,
,,,-06.960000000000,  -0.28000,
,,,-06.950000000000,  -0.21600,
,,,-06.940000000000,  -0.20000,
,,,-06.930000000000,  -0.16800,
,,,-06.920000000000,  -0.16800,
,,,-06.910000000000,  -0.13600,
,,,-06.900000000000,  -0.12000,
,,,-06.890000000000,  -0.10400,
,,,-06.880000000000,  -0.09600,
,,,-06.870000000000,  -0.08000,
,,,-06.860000000000,  -0.04800,
,,,-06.850000000000,  -0.06400,
,,,-06.840000000000,  -0.04000,
,,,-06.830000000000,  -0.04800,
,,,-06.820000000000,  -0.03200,
,,,-06.810000000000,  -0.04000,
,,,-06.800000000000,  -0.04800,
,,,-06.790000000000,  -0.01600,
,,,-06.780000000000,  -0.03200,
,,,-06.770000000000,  -0.01600,
,,,-06.760000000000,  -0.01600,
,,,-06.750000000000,  -0.02400,
,,,-06.740000000000,  -0.00800,
,,,-06.730000000000,   0.00800,
,,,-06.720000000000,  -0.01600,
,,,-06.710000000000,  -0.01600,
,,,-06.700000000000,  -0.00800,
,,,-06.690000000000,  -0.01600,
,,,-06.680000000000,  -0.00800,
,,,-06.670000000000,   0.01600,
,,,-06.660000000000,  -0.01600,
,,,-06.650000000000,   0.00000,
,,,-06.640000000000,   0.00000,
,,,-06.630000000000,   0.00800,
,,,-06.620000000000,  -0.01600,
,,,-06.610000000000,   0.00000,
,,,-06.600000000000,   0.00000,
,,,-06.590000000000,   0.00800,
,,,-06.580000000000,  -0.00800,
,,,-06.570000000000,  -0.01600,
,,,-06.560000000000,  -0.02400,
,,,-06.550000000000,   0.00800,
,,,-06.540000000000,  -0.01600,
,,,-06.530000000000,  -0.00800,
,,,-06.520000000000,   0.02400,
,,,-06.510000000000,   0.00000,
,,,-06.500000000000,   0.02400,
,,,-06.490000000000,  -0.00800,
,,,-06.480000000000,   0.00800,
,,,-06.470000000000,  -0.01600,
,,,-06.460000000000,   0.02400,
,,,-06.450000000000,   0.00800,
,,,-06.440000000000,   0.00000,
,,,-06.430000000000,  -0.00800,
,,,-06.420000000000,   0.00800,
,,,-06.410000000000,  -0.00800,
,,,-06.400000000000,   0.00000,
,,,-06.390000000000,  -0.01600,
,,,-06.380000000000,   0.00000,
,,,-06.370000000000,  -0.02400,
,,,-06.360000000000,   0.00000,
,,,-06.350000000000,  -0.00800,
,,,-06.340000000000,   0.01600,
,,,-06.330000000000,   0.02400,
,,,-06.320000000000,  -0.00800,
,,,-06.310000000000,   0.01600,
,,,-06.300000000000,  -0.00800,
,,,-06.290000000000,  -0.01600,
,,,-06.280000000000,  -0.00800,
,,,-06.270000000000,  -0.00800,
,,,-06.260000000000,   0.00000,
,,,-06.250000000000,   0.00000,
,,,-06.240000000000,  -0.00800,
,,,-06.230000000000,   0.00000,
,,,-06.220000000000,   0.00800,
,,,-06.210000000000,   0.01600,
,,,-06.200000000000,   0.01600,
,,,-06.190000000000,   0.00800,
,,,-06.180000000000,  -0.01600,
,,,-06.170000000000,   0.00800,
,,,-06.160000000000,   0.01600,
,,,-06.150000000000,   0.02400,
,,,-06.140000000000,  -0.00800,
,,,-06.130000000000,  -0.00800,
,,,-06.120000000000,   0.02400,
,,,-06.110000000000,   0.02400,
,,,-06.100000000000,   0.03200,
,,,-06.090000000000,   0.00800,
,,,-06.080000000000,   0.00000,
,,,-06.070000000000,   0.00000,
,,,-06.060000000000,   0.00000,
,,,-06.050000000000,   0.00000,
,,,-06.040000000000,   0.00000,
,,,-06.030000000000,  -0.01600,
,,,-06.020000000000,   0.00000,
,,,-06.010000000000,   0.00800,
,,,-06.000000000000,   0.48000,
,,,-05.990000000000,   0.40800,
,,,-05.980000000000,   0.36000,
,,,-05.970000000000,   0.31200,
,,,-05.960000000000,   0.26400,
,,,-05.950000000000,   0.23200,
,,,-05.940000000000,   0.21600,
,,,-05.930000000000,   0.19200,
,,,-05.920000000000,   0.16000,
,,,-05.910000000000,   0.16000,
,,,-05.900000000000,   0.11200,
,,,-05.890000000000,   0.12000,
,,,-05.880000000000,   0.10400,
,,,-05.870000000000,   0.08800,
,,,-05.860000000000,   0.08800,
,,,-05.850000000000,   0.08000,
,,,-05.840000000000,   0.07200,
,,,-05.830000000000,   0.04800,
,,,-05.820000000000,   0.06400,
,,,-05.810000000000,   0.04000,
,,,-05.800000000000,   0.06400,
,,,-05.790000000000,   0.03200,
,,,-05.780000000000,   0.02400,
,,,-05.770000000000,   0.03200,
,,,-05.760000000000,   0.04000,
,,,-05.750000000000,   0.03200,
,,,-05.740000000000,   0.04000,
,,,-05.730000000000,   0.02400,
,,,-05.720000000000,  -0.00800,
,,,-05.710000000000,   0.03200,
,,,-05.700000000000,   0.01600,
,,,-05.690000000000,   0.01600,
,,,-05.680000000000,   0.02400,
,,,-05.670000000000,   0.00800,
,,,-05.660000000000,   0.00000,
,,,-05.650000000000,   0.02400,
,,,-05.640000000000,   0.00000,
,,,-05.630000000000,   0.01600,
,,,-05.620000000000,   0.00800,
,,,-05.610000000000,   0.00800,
,,,-05.600000000000,   0.00000,
,,,-05.590000000000,   0.02400,
,,,-05.580000000000,  -0.00800,
,,,-05.570000000000,   0.01600,
,,,-05.560000000000,   0.02400,
,,,-05.550000000000,   0.00800,
,,,-05.540000000000,   0.00000,
,,,-05.530000000000,  -0.01600,
,,,-05.520000000000,   0.01600,
,,,-05.510000000000,   0.01600,
,,,-05.500000000000,   0.00800,
,,,-05.490000000000,   0.00800,
,,,-05.480000000000,   0.00000,
,,,-05.470000000000,   0.01600,
,,,-05.460000000000,   0.01600,
,,,-05.450000000000,   0.00800,
,,,-05.440000000000,  -0.00800,
,,,-05.430000000000,  -0.00800,
,,,-05.420000000000,  -0.00800,
,,,-05.410000000000,   0.00800,
,,,-05.400000000000,   0.00000,
,,,-05.390000000000,   0.00800,
,,,-05.380000000000,  -0.01600,
,,,-05.370000000000,   0.02400,
,,,-05.360000000000,  -0.00800,
,,,-05.350000000000,   0.00000,
,,,-05.340000000000,   0.01600,
,,,-05.330000000000,   0.01600,
,,,-05.320000000000,   0.00800,
,,,-05.310000000000,   0.03200,
,,,-05.300000000000,  -0.00800,
,,,-05.290000000000,   0.00800,
,,,-05.280000000000,   0.02400,
,,,-05.270000000000,  -0.00800,
,,,-05.260000000000,   0.00000,
,,,-05.250000000000,   0.00800,
,,,-05.240000000000,   0.00000,
,,,-05.230000000000,   0.00800,
,,,-05.220000000000,   0.00000,
,,,-05.210000000000,   0.00000,
,,,-05.200000000000,   0.01600,
,,,-05.190000000000,   0.00000,
,,,-05.180000000000,   0.00800,
,,,-05.170000000000,   0.00800,
,,,-05.160000000000,   0.00000,
,,,-05.150000000000,  -0.00800,
,,,-05.140000000000,  -0.03200,
,,,-05.130000000000,   0.01600,
,,,-05.120000000000,   0.00800,
,,,-05.110000000000,   0.02400,
,,,-05.100000000000,   0.00800,
,,,-05.090000000000,   0.00000,
,,,-05.080000000000,   0.00800,
,,,-05.070000000000,  -0.00800,
,,,-05.060000000000,   0.00800,
,,,-05.050000000000,   0.00800,
,,,-05.040000000000,   0.00800,
,,,-05.030000000000,  -0.01600,
,,,-05.020000000000,   0.01600,
,,,-05.010000000000,   0.00800,
,,,-05.000000000000,  -0.46400,
,,,-04.990000000000,  -0.42400,
,,,-04.980000000000,  -0.36000,
,,,-04.970000000000,  -0.29600,
,,,-04.960000000000,  -0.27200,
,,,-04.950000000000,  -0.24000,
,,,-04.940000000000,  -0.19200,
,,,-04.930000000000,  -0.15200,
,,,-04.920000000000,  -0.16000,
,,,-04.910000000000,  -0.14400,
,,,-04.900000000000,  -0.12000,
,,,-04.890000000000,  -0.10400,
,,,-04.880000000000,  -0.08800,
,,,-04.870000000000,  -0.08000,
,,,-04.860000000000,  -0.08000,
,,,-04.850000000000,  -0.05600,
,,,-04.840000000000,  -0.05600,
,,,-04.830000000000,  -0.05600,
,,,-04.820000000000,  -0.04000,
,,,-04.810000000000,  -0.03200,
,,,-04.800000000000,  -0.01600,
,,,-04.790000000000,  -0.04000,
,,,-04.780000000000,  -0.04000,
,,,-04.770000000000,  -0.02400,
,,,-04.760000000000,  -0.01600,
,,,-04.750000000000,   0.00800,
,,,-04.740000000000,   0.00000,
,,,-04.730000000000,  -0.02400,
,,,-04.720000000000,   0.00800,
,,,-04.710000000000,  -0.03200,
,,,-04.700000000000,   0.00000,
,,,-04.690000000000,  -0.01600,
,,,-04.680000000000,  -0.00800,
,,,-04.670000000000,  -0.01600,
,,,-04.660000000000,   0.02400,
,,,-04.650000000000,   0.00000,
,,,-04.640000000000,   0.00000,
,,,-04.630000000000,   0.02400,
,,,-04.620000000000,   0.00000,
,,,-04.610000000000,  -0.02400,
,,,-04.600000000000,   0.00000,
,,,-04.590000000000,   0.00000,
,,,-04.580000000000,  -0.00800,
,,,-04.570000000000,  -0.00800,
,,,-04.560000000000,  -0.00800,
,,,-04.550000000000,  -0.00800,
,,,-04.540000000000,  -0.00800,
,,,-04.530000000000,  -0.02400,
,,,-04.520000000000,   0.00000,
,,,-04.510000000000,  -0.00800,
,,,-04.500000000000,  -0.00800,
,,,-04.490000000000,   0.00800,
,,,-04.480000000000,   0.00800,
,,,-04.470000000000,  -0.00800,
,,,-04.460000000000,   0.00000,
,,,-04.450000000000,   0.02400,
,,,-04.440000000000,   0.00000,
,,,-04.430000000000,  -0.00800,
,,,-04.420000000000,  -0.00800,
,,,-04.410000000000,   0.00800,
,,,-04.400000000000,   0.00000,
,,,-04.390000000000,   0.01600,
,,,-04.380000000000,   0.00800,
,,,-04.370000000000,   0.00000,
,,,-04.360000000000,   0.00000,
,,,-04.350000000000,   0.00000,
,,,-04.340000000000,   0.00000,
,,,-04.330000000000,   0.00800,
,,,-04.320000000000,   0.00800,
,,,-04.310000000000,   0.00000,
,,,-04.300000000000,   0.02400,
,,,-04.290000000000,  -0.01600,
,,,-04.280000000000,   0.00800,
,,,-04.270000000000,   0.00800,
,,,-04.260000000000,   0.00000,
,,,-04.250000000000,  -0.00800,
,,,-04.240000000000,  -0.00800,
,,,-04.230000000000,   0.01600,
,,,-04.220000000000,  -0.00800,
,,,-04.210000000000,   0.00000,
,,,-04.200000000000,   0.01600,
,,,-04.190000000000,   0.00800,
,,,-04.180000000000,  -0.00800,
,,,-04.170000000000,   0.00000,
,,,-04.160000000000,   0.00800,
,,,-04.150000000000,   0.00800,
,,,-04.140000000000,  -0.00800,
,,,-04.130000000000,   0.02400,
,,,-04.120000000000,   0.00000,
,,,-04.110000000000,  -0.00800,
,,,-04.100000000000,   0.01600,
,,,-04.090000000000,   0.00800,
,,,-04.080000000000,   0.00000,
,,,-04.070000000000,  -0.00800,
,,,-04.060000000000,   0.01600,
,,,-04.050000000000,   0.02400,
,,,-04.040000000000,  -0.00800,
,,,-04.030000000000,   0.01600,
,,,-04.020000000000,  -0.00800,
,,,-04.010000000000,   0.02400,
,,,-04.000000000000,   0.44800,
,,,-03.990000000000,   0.40000,
,,,-03.980000000000,   0.35200,
,,,-03.970000000000,   0.31200,
,,,-03.960000000000,   0.27200,
,,,-03.950000000000,   0.24000,
,,,-03.940000000000,   0.19200,
,,,-03.930000000000,   0.19200,
,,,-03.920000000000,   0.16800,
,,,-03.910000000000,   0.13600,
,,,-03.900000000000,   0.14400,
,,,-03.890000000000,   0.10400,
,,,-03.880000000000,   0.11200,
,,,-03.870000000000,   0.10400,
,,,-03.860000000000,   0.06400,
,,,-03.850000000000,   0.08800,
,,,-03.840000000000,   0.04800,
,,,-03.830000000000,   0.06400,
,,,-03.820000000000,   0.03200,
,,,-03.810000000000,   0.05600,
,,,-03.800000000000,   0.04800,
,,,-03.790000000000,   0.02400,
,,,-03.780000000000,   0.04000,
,,,-03.770000000000,   0.03200,
,,,-03.760000000000,   0.02400,
,,,-03.750000000000,   0.03200,
,,,-03.740000000000,   0.02400,
,,,-03.730000000000,   0.02400,
,,,-03.720000000000,   0.01600,
,,,-03.710000000000,   0.03200,
,,,-03.700000000000,   0.02400,
,,,-03.690000000000,   0.03200,
,,,-03.680000000000,   0.01600,
,,,-03.670000000000,  -0.01600,
,,,-03.660000000000,   0.00800,
,,,-03.650000000000,   0.00800,
,,,-03.640000000000,   0.01600,
,,,-03.630000000000,   0.00800,
,,,-03.620000000000,  -0.00800,
,,,-03.610000000000,   0.00800,
,,,-03.600000000000,  -0.00800,
,,,-03.590000000000,   0.02400,
,,,-03.580000000000,   0.00800,
,,,-03.570000000000,  -0.00800,
,,,-03.560000000000,   0.00800,
,,,-03.550000000000,  -0.01600,
,,,-03.540000000000,  -0.00800,
,,,-03.530000000000,   0.00800,
,,,-03.520000000000,   0.00800,
,,,-03.510000000000,   0.02400,
,,,-03.500000000000,   0.02400,
,,,-03.490000000000,  -0.00800,
,,,-03.480000000000,   0.00000,
,,,-03.470000000000,   0.00000,
,,,-03.460000000000,   0.02400,
,,,-03.450000000000,   0.00800,
,,,-03.440000000000,   0.01600,
,,,-03.430000000000,   0.01600,
,,,-03.420000000000,   0.00000,
,,,-03.410000000000,   0.01600,
,,,-03.400000000000,   0.00000,
,,,-03.390000000000,   0.00000,
,,,-03.380000000000,  -0.01600,
,,,-03.370000000000,   0.00800,
,,,-03.360000000000,   0.01600,
,,,-03.350000000000,  -0.00800,
,,,-03.340000000000,   0.00000,
,,,-03.330000000000,  -0.00800,
,,,-03.320000000000,  -0.01600,
,,,-03.310000000000,   0.00800,
,,,-03.300000000000,  -0.01600,
,,,-03.290000000000,   0.02400,
,,,-03.280000000000,   0.02400,
,,,-03.270000000000,   0.00000,
,,,-03.260000000000,   0.00800,
,,,-03.250000000000,  -0.01600,
,,,-03.240000000000,   0.01600,
,,,-03.230000000000,   0.01600,
,,,-03.220000000000,   0.00800,
,,,-03.210000000000,  -0.00800,
,,,-03.200000000000,   0.00800,
,,,-03.190000000000,   0.00000,
,,,-03.180000000000,   0.00800,
,,,-03.170000000000,   0.02400,
,,,-03.160000000000,  -0.01600,
,,,-03.150000000000,   0.01600,
,,,-03.140000000000,   0.00800,
,,,-03.130000000000,   0.01600,
,,,-03.120000000000,   0.01600,
,,,-03.110000000000,  -0.00800,
,,,-03.100000000000,   0.00000,
,,,-03.090000000000,  -0.01600,
,,,-03.080000000000,   0.00800,
,,,-03.070000000000,  -0.01600,
,,,-03.060000000000,  -0.00800,
,,,-03.050000000000,  -0.00800,
,,,-03.040000000000,   0.00000,
,,,-03.030000000000,   0.01600,
,,,-03.020000000000,   0.00800,
,,,-03.010000000000,  -0.00800,
,,,-03.000000000000,  -0.45600,
,,,-02.990000000000,  -0.38400,
,,,-02.980000000000,  -0.32800,
,,,-02.970000000000,  -0.30400,
,,,-02.960000000000,  -0.27200,
,,,-02.950000000000,  -0.21600,
,,,-02.940000000000,  -0.20800,
,,,-02.930000000000,  -0.19200,
,,,-02.920000000000,  -0.16800,
,,,-02.910000000000,  -0.13600,
,,,-02.900000000000,  -0.10400,
,,,-02.890000000000,  -0.11200,
,,,-02.880000000000,  -0.09600,
,,,-02.870000000000,  -0.08800,
,,,-02.860000000000,  -0.07200,
,,,-02.850000000000,  -0.06400,
,,,-02.840000000000,  -0.04800,
,,,-02.830000000000,  -0.04000,
,,,-02.820000000000,  -0.04000,
,,,-02.810000000000,  -0.04800,
,,,-02.800000000000,  -0.04000,
,,,-02.790000000000,  -0.03200,
,,,-02.780000000000,  -0.02400,
,,,-02.770000000000,  -0.02400,
,,,-02.760000000000,  -0.00800,
,,,-02.750000000000,  -0.02400,
,,,-02.740000000000,  -0.00800,
,,,-02.730000000000,  -0.01600,
,,,-02.720000000000,  -0.00800,
,,,-02.710000000000,   0.00000,
,,,-02.700000000000,   0.00000,
,,,-02.690000000000,  -0.00800,
,,,-02.680000000000,  -0.00800,
,,,-02.670000000000,  -0.01600,
,,,-02.660000000000,   0.00000,
,,,-02.650000000000,  -0.00800,
,,,-02.640000000000,  -0.00800,
,,,-02.630000000000,   0.00000,
,,,-02.620000000000,   0.00800,
,,,-02.610000000000,   0.00000,
,,,-02.600000000000,  -0.01600,
,,,-02.590000000000,   0.01600,
,,,-02.580000000000,   0.00800,
,,,-02.570000000000,   0.00800,
,,,-02.560000000000,   0.00000,
,,,-02.550000000000,   0.00800,
,,,-02.540000000000,   0.00000,
,,,-02.530000000000,   0.00800,
,,,-02.520000000000,  -0.00800,
,,,-02.510000000000,  -0.00800,
,,,-02.500000000000,   0.02400,
,,,-02.490000000000,   0.00800,
,,,-02.480000000000,   0.02400,
,,,-02.470000000000,   0.01600,
,,,-02.460000000000,   0.00000,
,,,-02.450000000000,  -0.00800,
,,,-02.440000000000,   0.01600,
,,,-02.430000000000,   0.00000,
,,,-02.420000000000,   0.00000,
,,,-02.410000000000,   0.00000,
,,,-02.400000000000,   0.00000,
,,,-02.390000000000,   0.01600,
,,,-02.380000000000,  -0.02400,
,,,-02.370000000000,  -0.00800,
,,,-02.360000000000,   0.00000,
