docs/Versuch/SlavePiAuslastung/F0011CH1.CSV

Record Length,2.500000e+03,,   3.500000000000,   0.00800,
Sample Interval,2.000000e-03,,   3.502000000000,   0.01600,
Trigger Point,-1.750000000000e+03,,   3.504000000000,   0.01600,
,,,   3.506000000000,   0.00000,
,,,   3.508000000000,   0.00000,
,,,   3.510000000000,   0.00800,
Source,CH1,,   3.512000000000,   0.02400,
Vertical Units,V,,   3.514000000000,  -0.00800,
Vertical Scale,2.000000e-01,,   3.516000000000,   0.00000,
Vertical Offset,0.000000e+00,,   3.518000000000,   0.01600,
Horizontal Units,s,,   3.520000000000,  -0.00800,
Horizontal Scale,5.000000e-01,,   3.522000000000,   0.00000,
Pt Fmt,Y,,   3.524000000000,   0.02400,
Yzero,0.000000e+00,,   3.526000000000,   0.00000,
Probe Atten,1.000000e+01,,   3.528000000000,  -0.00800,
Model Number,TDS2024C,,   3.530000000000,   0.00800,
Serial Number,C040020,,   3.532000000000,   0.02400,
Firmware Version,FV:v24.26,,   3.534000000000,   0.00800,
,,,3.536000000000,   0.01600,
,,,3.538000000000,   0.01600,
,,,3.540000000000,   0.01600,
,,,3.542000000000,   0.01600,
,,,3.544000000000,   0.00000,
,,,3.546000000000,   0.00000,
,,,3.548000000000,   0.00000,
,,,3.550000000000,   0.00800,
,,,3.552000000000,   0.01600,
,,,3.554000000000,   0.00000,
,,,3.556000000000,   0.01600,
,,,3.558000000000,  -0.00800,
,,,3.560000000000,   0.00000,
,,,3.562000000000,   0.01600,
,,,3.564000000000,   0.00800,
,,,3.566000000000,  -0.01600,
,,,3.568000000000,  -0.00800,
,,,3.570000000000,   0.01600,
,,,3.572000000000,   0.01600,
,,,3.574000000000,  -0.00800,
,,,3.576000000000,  -0.00800,
,,,3.578000000000,   0.00000,
,,,3.580000000000,   0.00000,
,,,3.582000000000,   0.01600,
,,,3.584000000000,   0.00000,
,,,3.586000000000,   0.01600,
,,,3.588000000000,  -0.00800,
,,,3.590000000000,   0.00000,
,,,3.592000000000,   0.00000,
,,,3.594000000000,   0.00000,
,,,3.596000000000,   0.00800,
,,,3.598000000000,   0.00800,
,,,3.600000000000,   0.01600,
,,,3.602000000000,  -0.00800,
,,,3.604000000000,   0.01600,
,,,3.606000000000,   0.00000,
,,,3.608000000000,  -0.00800,
,,,3.610000000000,   0.00000,
,,,3.612000000000,  -0.02400,
,,,3.614000000000,   0.01600,
,,,3.616000000000,   0.00000,
,,,3.618000000000,   0.00800,
,,,3.620000000000,   0.00800,
,,,3.622000000000,  -0.00800,
,,,3.624000000000,   0.01600,
,,,3.626000000000,   0.02400,
,,,3.628000000000,   0.01600,
,,,3.630000000000,   0.00800,
,,,3.632000000000,   0.00000,
,,,3.634000000000,  -0.01600,
,,,3.636000000000,  -0.01600,
,,,3.638000000000,   0.02400,
,,,3.640000000000,   0.00000,
,,,3.642000000000,  -0.00800,
,,,3.644000000000,   0.00800,
,,,3.646000000000,   0.00000,
,,,3.648000000000,   0.01600,
,,,3.650000000000,   0.01600,
,,,3.652000000000,   0.00000,
,,,3.654000000000,   0.00000,
,,,3.656000000000,   0.01600,
,,,3.658000000000,  -0.00800,
,,,3.660000000000,  -0.00800,
,,,3.662000000000,   0.00800,
,,,3.664000000000,   0.00800,
,,,3.666000000000,  -0.00800,
,,,3.668000000000,   0.03200,
,,,3.670000000000,  -0.02400,
,,,3.672000000000,   0.00000,
,,,3.674000000000,   0.04000,
,,,3.676000000000,   0.01600,
,,,3.678000000000,   0.01600,
,,,3.680000000000,  -0.00800,
,,,3.682000000000,   0.00000,
,,,3.684000000000,  -0.00800,
,,,3.686000000000,  -0.00800,
,,,3.688000000000,   0.00000,
,,,3.690000000000,   0.00000,
,,,3.692000000000,  -0.00800,
,,,3.694000000000,   0.01600,
,,,3.696000000000,  -0.00800,
,,,3.698000000000,   0.00800,
,,,3.700000000000,   0.02400,
,,,3.702000000000,   0.01600,
,,,3.704000000000,   0.01600,
,,,3.706000000000,   0.00000,
,,,3.708000000000,  -0.00800,
,,,3.710000000000,   0.01600,
,,,3.712000000000,   0.00000,
,,,3.714000000000,   0.00000,
,,,3.716000000000,   0.00800,
,,,3.718000000000,   0.01600,
,,,3.720000000000,  -0.00800,
,,,3.722000000000,  -0.00800,
,,,3.724000000000,   0.00000,
,,,3.726000000000,   0.00800,
,,,3.728000000000,   0.00800,
,,,3.730000000000,   0.01600,
,,,3.732000000000,   0.01600,
,,,3.734000000000,   0.02400,
,,,3.736000000000,   0.02400,
,,,3.738000000000,   0.01600,
,,,3.740000000000,   0.01600,
,,,3.742000000000,  -0.00800,
,,,3.744000000000,   0.01600,
,,,3.746000000000,   0.01600,
,,,3.748000000000,   0.01600,
,,,3.750000000000,   0.01600,
,,,3.752000000000,   0.00000,
,,,3.754000000000,   0.00000,
,,,3.756000000000,  -0.00800,
,,,3.758000000000,  -0.00800,
,,,3.760000000000,   0.00000,
,,,3.762000000000,   0.00000,
,,,3.764000000000,   0.00000,
,,,3.766000000000,  -0.00800,
,,,3.768000000000,   0.01600,
,,,3.770000000000,  -0.01600,
,,,3.772000000000,  -0.01600,
,,,3.774000000000,  -0.01600,
,,,3.776000000000,   0.02400,
,,,3.778000000000,  -0.02400,
,,,3.780000000000,   0.00000,
,,,3.782000000000,   0.00000,
,,,3.784000000000,  -0.00800,
,,,3.786000000000,   0.01600,
,,,3.788000000000,   0.00000,
,,,3.790000000000,   0.00800,
,,,3.792000000000,   0.00800,
,,,3.794000000000,   0.01600,
,,,3.796000000000,   0.01600,
,,,3.798000000000,   0.01600,
,,,3.800000000000,   0.01600,
,,,3.802000000000,   0.00000,
,,,3.804000000000,  -0.00800,
,,,3.806000000000,   0.00800,
,,,3.808000000000,   0.00800,
,,,3.810000000000,   0.00000,
,,,3.812000000000,   0.00000,
,,,3.814000000000,   0.00800,
,,,3.816000000000,   0.00000,
,,,3.818000000000,   0.00800,
,,,3.820000000000,   0.01600,
,,,3.822000000000,   0.01600,
,,,3.824000000000,   0.01600,
,,,3.826000000000,  -0.00800,
,,,3.828000000000,   0.01600,
,,,3.830000000000,  -0.00800,
,,,3.832000000000,   0.00000,
,,,3.834000000000,   0.00800,
,,,3.836000000000,  -0.00800,
,,,3.838000000000,   0.00000,
,,,3.840000000000,   0.01600,
,,,3.842000000000,   0.01600,
,,,3.844000000000,  -0.00800,
,,,3.846000000000,   0.01600,
,,,3.848000000000,   0.00000,
,,,3.850000000000,   0.01600,
,,,3.852000000000,   0.03200,
,,,3.854000000000,   0.00800,
,,,3.856000000000,  -0.01600,
,,,3.858000000000,  -0.00800,
,,,3.860000000000,   0.00000,
,,,3.862000000000,  -0.00800,
,,,3.864000000000,   0.00800,
,,,3.866000000000,   0.00000,
,,,3.868000000000,  -0.01600,
,,,3.870000000000,  -0.00800,
,,,3.872000000000,   0.00800,
,,,3.874000000000,   0.01600,
,,,3.876000000000,   0.00000,
,,,3.878000000000,   0.00800,
,,,3.880000000000,  -0.01600,
,,,3.882000000000,   0.02400,
,,,3.884000000000,   0.00800,
,,,3.886000000000,  -0.00800,
,,,3.888000000000,   0.00800,
,,,3.890000000000,  -0.00800,
,,,3.892000000000,   0.02400,
,,,3.894000000000,   0.00000,
,,,3.896000000000,  -0.01600,
,,,3.898000000000,   0.00000,
,,,3.900000000000,  -0.00800,
,,,3.902000000000,  -0.00800,
,,,3.904000000000,   0.00800,
,,,3.906000000000,   0.00000,
,,,3.908000000000,  -0.00800,
,,,3.910000000000,   0.00800,
,,,3.912000000000,  -0.01600,
,,,3.914000000000,  -0.02400,
,,,3.916000000000,   0.00000,
,,,3.918000000000,  -0.00800,
,,,3.920000000000,  -0.02400,
,,,3.922000000000,  -0.01600,
,,,3.924000000000,   0.00000,
,,,3.926000000000,   0.00800,
,,,3.928000000000,   0.00000,
,,,3.930000000000,   0.01600,
,,,3.932000000000,  -0.00800,
,,,3.934000000000,   0.00800,
,,,3.936000000000,   0.00800,
,,,3.938000000000,   0.02400,
,,,3.940000000000,  -0.00800,
,,,3.942000000000,   0.00000,
,,,3.944000000000,   0.01600,
,,,3.946000000000,  -0.01600,
,,,3.948000000000,  -0.00800,
,,,3.950000000000,   0.00000,
,,,3.952000000000,   0.01600,
,,,3.954000000000,   0.02400,
,,,3.956000000000,  -0.02400,
,,,3.958000000000,  -0.00800,
,,,3.960000000000,   0.01600,
,,,3.962000000000,   0.01600,
,,,3.964000000000,   0.00000,
,,,3.966000000000,  -0.00800,
,,,3.968000000000,   0.02400,
,,,3.970000000000,   0.00000,
,,,3.972000000000,   0.00000,
,,,3.974000000000,  -0.01600,
,,,3.976000000000,   0.00800,
,,,3.978000000000,   0.00000,
,,,3.980000000000,   0.00000,
,,,3.982000000000,   0.01600,
,,,3.984000000000,   0.01600,
,,,3.986000000000,   0.00000,
,,,3.988000000000,   0.00800,
,,,3.990000000000,   0.00000,
,,,3.992000000000,   0.01600,
,,,3.994000000000,   0.00800,
,,,3.996000000000,   0.01600,
,,,3.998000000000,  -0.00800,
,,,4.000000000000,   0.47200,
,,,4.002000000000,   0.47200,
,,,4.004000000000,   0.42400,
,,,4.006000000000,   0.41600,
,,,4.008000000000,   0.40000,
,,,4.010000000000,   0.43200,
,,,4.012000000000,   0.37600,
,,,4.014000000000,   0.37600,
,,,4.016000000000,   0.38400,
,,,4.018000000000,   0.35200,
,,,4.020000000000,   0.34400,
,,,4.022000000000,   0.35200,
,,,4.024000000000,   0.32000,
,,,4.026000000000,   0.34400,
,,,4.028000000000,   0.32000,
,,,4.030000000000,   0.29600,
,,,4.032000000000,   0.30400,
,,,4.034000000000,   0.30400,
,,,4.036000000000,   0.28000,
,,,4.038000000000,   0.28000,
,,,4.040000000000,   0.28000,
,,,4.042000000000,   0.26400,
,,,4.044000000000,   0.27200,
,,,4.046000000000,   0.26400,
,,,4.048000000000,   0.24000,
,,,4.050000000000,   0.22400,
,,,4.052000000000,   0.24000,
,,,4.054000000000,   0.22400,
,,,4.056000000000,   0.21600,
,,,4.058000000000,   0.22400,
,,,4.060000000000,   0.21600,
,,,4.062000000000,   0.20000,
,,,4.064000000000,   0.21600,
,,,4.066000000000,   0.19200,
,,,4.068000000000,   0.18400,
,,,4.070000000000,   0.19200,
,,,4.072000000000,   0.17600,
,,,4.074000000000,   0.17600,
,,,4.076000000000,   0.18400,
,,,4.078000000000,   0.16000,
,,,4.080000000000,   0.17600,
,,,4.082000000000,   0.15200,
,,,4.084000000000,   0.15200,
,,,4.086000000000,   0.13600,
,,,4.088000000000,   0.14400,
,,,4.090000000000,   0.14400,
,,,4.092000000000,   0.14400,
,,,4.094000000000,   0.13600,
,,,4.096000000000,   0.16800,
,,,4.098000000000,   0.13600,
,,,4.100000000000,   0.11200,
,,,4.102000000000,   0.10400,
,,,4.104000000000,   0.12000,
,,,4.106000000000,   0.12800,
,,,4.108000000000,   0.12000,
,,,4.110000000000,   0.11200,
,,,4.112000000000,   0.12800,
,,,4.114000000000,   0.10400,
,,,4.116000000000,   0.10400,
,,,4.118000000000,   0.08000,
,,,4.120000000000,   0.09600,
,,,4.122000000000,   0.09600,
,,,4.124000000000,   0.08800,
,,,4.126000000000,   0.08000,
,,,4.128000000000,   0.08000,
,,,4.130000000000,   0.09600,
,,,4.132000000000,   0.08000,
,,,4.134000000000,   0.08000,
,,,4.136000000000,   0.08000,
,,,4.138000000000,   0.08000,
,,,4.140000000000,   0.08000,
,,,4.142000000000,   0.06400,
,,,4.144000000000,   0.07200,
,,,4.146000000000,   0.06400,
,,,4.148000000000,   0.05600,
,,,4.150000000000,   0.09600,
,,,4.152000000000,   0.06400,
,,,4.154000000000,   0.06400,
,,,4.156000000000,   0.05600,
,,,4.158000000000,   0.05600,
,,,4.160000000000,   0.07200,
,,,4.162000000000,   0.07200,
,,,4.164000000000,   0.06400,
,,,4.166000000000,   0.05600,
,,,4.168000000000,   0.06400,
,,,4.170000000000,   0.05600,
,,,4.172000000000,   0.07200,
,,,4.174000000000,   0.06400,
,,,4.176000000000,   0.06400,
,,,4.178000000000,   0.04000,
,,,4.180000000000,   0.05600,
,,,4.182000000000,   0.05600,
,,,4.184000000000,   0.05600,
,,,4.186000000000,   0.01600,
,,,4.188000000000,   0.04800,
,,,4.190000000000,   0.04800,
,,,4.192000000000,   0.03200,
,,,4.194000000000,   0.03200,
,,,4.196000000000,   0.03200,
,,,4.198000000000,   0.02400,
,,,4.200000000000,   0.05600,
,,,4.202000000000,   0.04800,
,,,4.204000000000,   0.04800,
,,,4.206000000000,   0.04800,
,,,4.208000000000,   0.04000,
,,,4.210000000000,   0.03200,
,,,4.212000000000,   0.02400,
,,,4.214000000000,   0.04000,
,,,4.216000000000,   0.04000,
,,,4.218000000000,   0.03200,
,,,4.220000000000,   0.04800,
,,,4.222000000000,   0.02400,
,,,4.224000000000,   0.02400,
,,,4.226000000000,   0.02400,
,,,4.228000000000,   0.04000,
,,,4.230000000000,   0.01600,
,,,4.232000000000,   0.03200,
,,,4.234000000000,   0.02400,
,,,4.236000000000,   0.01600,
,,,4.238000000000,   0.01600,
,,,4.240000000000,   0.04000,
,,,4.242000000000,   0.02400,
,,,4.244000000000,   0.03200,
,,,4.246000000000,   0.02400,
,,,4.248000000000,   0.02400,
,,,4.250000000000,   0.02400,
,,,4.252000000000,   0.01600,
,,,4.254000000000,   0.01600,
,,,4.256000000000,   0.01600,
,,,4.258000000000,   0.01600,
,,,4.260000000000,   0.01600,
,,,4.262000000000,   0.01600,
,,,4.264000000000,   0.01600,
,,,4.266000000000,   0.04000,
,,,4.268000000000,   0.00800,
,,,4.270000000000,   0.02400,
,,,4.272000000000,   0.01600,
,,,4.274000000000,   0.00800,
,,,4.276000000000,   0.03200,
,,,4.278000000000,   0.01600,
,,,4.280000000000,   0.03200,
,,,4.282000000000,   0.00800,
,,,4.284000000000,   0.01600,
,,,4.286000000000,   0.01600,
,,,4.288000000000,   0.02400,
,,,4.290000000000,   0.00800,
,,,4.292000000000,   0.01600,
,,,4.294000000000,   0.01600,
,,,4.296000000000,  -0.00800,
,,,4.298000000000,   0.02400,
,,,4.300000000000,   0.02400,
,,,4.302000000000,   0.00000,
,,,4.304000000000,   0.01600,
,,,4.306000000000,   0.00000,
,,,4.308000000000,  -0.00800,
,,,4.310000000000,   0.03200,
,,,4.312000000000,   0.01600,
,,,4.314000000000,   0.01600,
,,,4.316000000000,   0.01600,
,,,4.318000000000,   0.00800,
,,,4.320000000000,   0.02400,
,,,4.322000000000,  -0.00800,
,,,4.324000000000,   0.02400,
,,,4.326000000000,   0.02400,
,,,4.328000000000,   0.01600,
,,,4.330000000000,   0.00000,
,,,4.332000000000,   0.00000,
,,,4.334000000000,   0.02400,
,,,4.336000000000,   0.00000,
,,,4.338000000000,   0.00800,
,,,4.340000000000,   0.03200,
,,,4.342000000000,   0.02400,
,,,4.344000000000,   0.01600,
,,,4.346000000000,   0.01600,
,,,4.348000000000,   0.01600,
,,,4.350000000000,   0.01600,
,,,4.352000000000,  -0.00800,
,,,4.354000000000,   0.00800,
,,,4.356000000000,   0.00800,
,,,4.358000000000,   0.00800,
,,,4.360000000000,   0.01600,
,,,4.362000000000,   0.02400,
,,,4.364000000000,   0.00000,
,,,4.366000000000,   0.00000,
,,,4.368000000000,   0.02400,
,,,4.370000000000,   0.01600,
,,,4.372000000000,  -0.00800,
,,,4.374000000000,   0.00000,
,,,4.376000000000,  -0.00800,
,,,4.378000000000,  -0.00800,
,,,4.380000000000,   0.02400,
,,,4.382000000000,   0.00800,
,,,4.384000000000,   0.01600,
,,,4.386000000000,   0.00000,
,,,4.388000000000,   0.01600,
,,,4.390000000000,   0.01600,
,,,4.392000000000,  -0.00800,
,,,4.394000000000,   0.00000,
,,,4.396000000000,   0.01600,
,,,4.398000000000,   0.01600,
,,,4.400000000000,   0.01600,
,,,4.402000000000,  -0.00800,
,,,4.404000000000,   0.00800,
,,,4.406000000000,   0.00800,
,,,4.408000000000,   0.01600,
,,,4.410000000000,  -0.01600,
,,,4.412000000000,   0.00000,
,,,4.414000000000,  -0.00800,
,,,4.416000000000,  -0.02400,
,,,4.418000000000,   0.00800,
,,,4.420000000000,   0.00800,
,,,4.422000000000,   0.01600,
,,,4.424000000000,   0.02400,
,,,4.426000000000,  -0.00800,
,,,4.428000000000,   0.01600,
,,,4.430000000000,   0.00000,
,,,4.432000000000,  -0.00800,
,,,4.434000000000,   0.00000,
,,,4.436000000000,   0.01600,
,,,4.438000000000,   0.01600,
,,,4.440000000000,  -0.00800,
,,,4.442000000000,  -0.00800,
,,,4.444000000000,   0.01600,
,,,4.446000000000,   0.02400,
,,,4.448000000000,   0.00800,
,,,4.450000000000,  -0.00800,
,,,4.452000000000,   0.01600,
,,,4.454000000000,  -0.00800,
,,,4.456000000000,   0.03200,
,,,4.458000000000,   0.01600,
,,,4.460000000000,   0.02400,
,,,4.462000000000,   0.00800,
,,,4.464000000000,  -0.00800,
,,,4.466000000000,  -0.01600,
,,,4.468000000000,  -0.00800,
,,,4.470000000000,  -0.01600,
,,,4.472000000000,   0.01600,
,,,4.474000000000,   0.01600,
,,,4.476000000000,   0.00000,
,,,4.478000000000,   0.01600,
,,,4.480000000000,   0.00000,
,,,4.482000000000,   0.00000,
,,,4.484000000000,   0.01600,
,,,4.486000000000,   0.00000,
,,,4.488000000000,   0.00800,
,,,4.490000000000,   0.00000,
,,,4.492000000000,   0.01600,
,,,4.494000000000,   0.00800,
,,,4.496000000000,   0.01600,
,,,4.498000000000,  -0.00800,
,,,4.500000000000,   0.02400,
,,,4.502000000000,   0.01600,
,,,4.504000000000,   0.00800,
,,,4.506000000000,   0.00000,
,,,4.508000000000,   0.01600,
,,,4.510000000000,  -0.00800,
,,,4.512000000000,  -0.01600,
,,,4.514000000000,   0.00000,
,,,4.516000000000,   0.00800,
,,,4.518000000000,   0.00800,
,,,4.520000000000,   0.00800,
,,,4.522000000000,  -0.00800,
,,,4.524000000000,   0.01600,
,,,4.526000000000,   0.00000,
,,,4.528000000000,   0.00000,
,,,4.530000000000,   0.00000,
,,,4.532000000000,   0.01600,
,,,4.534000000000,  -0.01600,
,,,4.536000000000,  -0.00800,
,,,4.538000000000,   0.00800,
,,,4.540000000000,   0.00800,
,,,4.542000000000,   0.00800,
,,,4.544000000000,   0.00800,
,,,4.546000000000,   0.02400,
,,,4.548000000000,  -0.01600,
,,,4.550000000000,   0.00000,
,,,4.552000000000,  -0.00800,
,,,4.554000000000,   0.00800,
,,,4.556000000000,  -0.00800,
,,,4.558000000000,  -0.00800,
,,,4.560000000000,   0.00000,
,,,4.562000000000,   0.01600,
,,,4.564000000000,   0.00000,
,,,4.566000000000,  -0.00800,
,,,4.568000000000,   0.00000,
,,,4.570000000000,  -0.00800,
,,,4.572000000000,  -0.00800,
,,,4.574000000000,   0.01600,
,,,4.576000000000,   0.01600,
,,,4.578000000000,   0.00000,
,,,4.580000000000,   0.02400,
,,,4.582000000000,  -0.00800,
,,,4.584000000000,   0.00000,
,,,4.586000000000,  -0.00800,
,,,4.588000000000,   0.00000,
,,,4.590000000000,   0.00800,
,,,4.592000000000,   0.02400,
,,,4.594000000000,   0.00000,
,,,4.596000000000,   0.00000,
,,,4.598000000000,   0.01600,
,,,4.600000000000,   0.01600,
,,,4.602000000000,   0.00000,
,,,4.604000000000,   0.01600,
,,,4.606000000000,  -0.00800,
,,,4.608000000000,   0.00800,
,,,4.610000000000,   0.00800,
,,,4.612000000000,  -0.01600,
,,,4.614000000000,  -0.02400,
,,,4.616000000000,   0.00800,
,,,4.618000000000,   0.01600,
,,,4.620000000000,   0.00000,
,,,4.622000000000,   0.00000,
,,,4.624000000000,   0.00800,
,,,4.626000000000,   0.01600,
,,,4.628000000000,   0.00800,
,,,4.630000000000,   0.00000,
,,,4.632000000000,   0.00800,
,,,4.634000000000,   0.00800,
,,,4.636000000000,  -0.00800,
,,,4.638000000000,   0.01600,
,,,4.640000000000,  -0.00800,
,,,4.642000000000,   0.00000,
,,,4.644000000000,  -0.01600,
,,,4.646000000000,   0.02400,
,,,4.648000000000,   0.00800,
,,,4.650000000000,   0.02400,
,,,4.652000000000,   0.03200,
,,,4.654000000000,   0.02400,
,,,4.656000000000,   0.01600,
,,,4.658000000000,   0.01600,
,,,4.660000000000,   0.01600,
,,,4.662000000000,  -0.00800,
,,,4.664000000000,   0.00800,
,,,4.666000000000,   0.00000,
,,,4.668000000000,  -0.00800,
,,,4.670000000000,   0.00800,
,,,4.672000000000,   0.00000,
,,,4.674000000000,  -0.00800,
,,,4.676000000000,   0.01600,
,,,4.678000000000,   0.00800,
,,,4.680000000000,  -0.02400,
,,,4.682000000000,  -0.02400,
,,,4.684000000000,   0.00000,
,,,4.686000000000,  -0.00800,
,,,4.688000000000,   0.01600,
,,,4.690000000000,   0.00000,
,,,4.692000000000,   0.00000,
,,,4.694000000000,   0.01600,
,,,4.696000000000,   0.00000,
,,,4.698000000000,   0.01600,
,,,4.700000000000,   0.00800,
,,,4.702000000000,   0.00000,
,,,4.704000000000,   0.00800,
,,,4.706000000000,  -0.01600,
,,,4.708000000000,   0.00800,
,,,4.710000000000,  -0.00800,
,,,4.712000000000,  -0.00800,
,,,4.714000000000,   0.00000,
,,,4.716000000000,   0.00000,
,,,4.718000000000,  -0.03200,
,,,4.720000000000,   0.00000,
,,,4.722000000000,   0.00000,
,,,4.724000000000,   0.00000,
,,,4.726000000000,   0.01600,
,,,4.728000000000,   0.00000,
,,,4.730000000000,   0.00800,
,,,4.732000000000,   0.01600,
,,,4.734000000000,  -0.01600,
,,,4.736000000000,   0.00000,
,,,4.738000000000,  -0.00800,
,,,4.740000000000,  -0.00800,
,,,4.742000000000,   0.00000,
,,,4.744000000000,   0.00000,
,,,4.746000000000,   0.00000,
,,,4.748000000000,  -0.00800,
,,,4.750000000000,   0.00800,
,,,4.752000000000,   0.02400,
,,,4.754000000000,   0.02400,
,,,4.756000000000,   0.02400,
,,,4.758000000000,   0.00800,
,,,4.760000000000,   0.00000,
,,,4.762000000000,  -0.00800,
,,,4.764000000000,   0.03200,
,,,4.766000000000,   0.01600,
,,,4.768000000000,   0.00000,
,,,4.770000000000,   0.00000,
,,,4.772000000000,  -0.01600,
,,,4.774000000000,  -0.01600,
,,,4.776000000000,   0.01600,
,,,4.778000000000,   0.00000,
,,,4.780000000000,   0.01600,
,,,4.782000000000,  -0.00800,
,,,4.784000000000,  -0.00800,
,,,4.786000000000,   0.01600,
,,,4.788000000000,   0.02400,
,,,4.790000000000,  -0.00800,
,,,4.792000000000,  -0.00800,
,,,4.794000000000,   0.00800,
,,,4.796000000000,   0.02400,
,,,4.798000000000,   0.01600,
,,,4.800000000000,  -0.03200,
,,,4.802000000000,   0.02400,
,,,4.804000000000,   0.00800,
,,,4.806000000000,   0.01600,
